{
  "userSays": [],
  "id": "5f9cec6b-299b-4a2d-90a0-44dafae4cee0",
  "name": "DefaultFallbackIntent",
  "auto": false,
  "contexts": [],
  "responses": [
    {
      "resetContexts": false,
      "affectedContexts": [],
      "parameters": [],
      "messages": [
        {
          "type": 0,
          "speech": [
            "Sorry, I didn\u0027t understand.",
            "Could you please rephrase it?",
            "Excuse me?",
            "Sorry, I’m afraid I don’t follow you.",
            "I’m confused.",
            "Hmm?",
            "What?",
            "Seems we are not in the same page. What did you mean?",
            "What do you mean?",
            "Would you mind clarifying what you said?",
            "Pardon me, could you repeat that please?"
          ]
        }
      ]
    }
  ],
  "priority": 500000,
  "webhookUsed": false,
  "webhookForSlotFilling": false,
  "fallbackIntent": true,
  "events": []
}