{
  "userSays": [
    {
      "id": "70f3d4a7-9760-4757-9349-3b70e2db221e",
      "data": [
        {
          "text": "web page"
        }
      ],
      "isTemplate": false,
      "count": 0
    }
  ],
  "id": "b45bf12d-4b64-4567-8a9f-2209b4eea2e2",
  "name": "eventWebpage",
  "auto": true,
  "contexts": [],
  "responses": [
    {
      "resetContexts": false,
      "affectedContexts": [],
      "parameters": [],
      "messages": [
        {
          "type": 0,
          "speech": "Event website is www.ttu.ee/startup"
        }
      ]
    }
  ],
  "priority": 500000,
  "webhookUsed": false,
  "webhookForSlotFilling": false,
  "fallbackIntent": false,
  "events": []
}