{
  "userSays": [
    {
      "id": "a6db31e5-e1c9-46a6-bc78-f613d499fff6",
      "data": [
        {
          "text": "help me"
        }
      ],
      "isTemplate": false,
      "count": 0
    },
    {
      "id": "ffdb9eec-268c-465c-af69-3619bb7e5a1d",
      "data": [
        {
          "text": "help"
        }
      ],
      "isTemplate": false,
      "count": 0
    },
    {
      "id": "0c32f29d-1c9e-49b3-88e3-b7e697ea37a8",
      "data": [
        {
          "text": "examples"
        }
      ],
      "isTemplate": false,
      "count": 0
    },
    {
      "id": "dcaaf9f3-c9bf-4636-b6e0-c6a77d0adf02",
      "data": [
        {
          "text": "example keywords"
        }
      ],
      "isTemplate": false,
      "count": 0
    },
    {
      "id": "11ac5d63-214f-4343-989e-574e10c323ad",
      "data": [
        {
          "text": "example commands"
        }
      ],
      "isTemplate": false,
      "count": 0
    },
    {
      "id": "88796f6b-dedb-4f5d-9a2a-ba799f1f04e3",
      "data": [
        {
          "text": "example"
        }
      ],
      "isTemplate": false,
      "count": 0
    }
  ],
  "id": "57608b2c-5466-44b1-af61-2995bb443a89",
  "name": "helpExamples",
  "auto": true,
  "contexts": [],
  "responses": [
    {
      "resetContexts": false,
      "affectedContexts": [],
      "parameters": [],
      "messages": [
        {
          "type": 0,
          "speech": [
            "Try to enter \"what\u0027s next?\" or \"who are the finalists?\" or \"awards?\"",
            "Try to ask: \"who are in the jury?\" or \"website?\" or \"schedule?\"",
            "I\u0027m glad to help you. You can ask about event (schedule, finalists, webiste, jury, awards and a lot of more)."
          ]
        }
      ]
    }
  ],
  "priority": 500000,
  "webhookUsed": false,
  "webhookForSlotFilling": false,
  "fallbackIntent": false,
  "events": []
}