{
  "userSays": [
    {
      "id": "1571d809-5a4e-4a3b-b9cd-ddf634e6e55f",
      "data": [
        {
          "text": "email"
        }
      ],
      "isTemplate": false,
      "count": 0
    },
    {
      "id": "4c4fabbd-8aa6-4364-831e-c0159b82aea4",
      "data": [
        {
          "text": "e-mail"
        }
      ],
      "isTemplate": false,
      "count": 0
    }
  ],
  "id": "029e9130-7779-4141-9b6e-889285569700",
  "name": "contactEmail",
  "auto": true,
  "contexts": [],
  "responses": [
    {
      "resetContexts": false,
      "affectedContexts": [],
      "parameters": [],
      "messages": [
        {
          "type": 0,
          "speech": "Event contact e-mail is info@topconf.com"
        }
      ]
    }
  ],
  "priority": 500000,
  "webhookUsed": false,
  "webhookForSlotFilling": false,
  "fallbackIntent": false,
  "events": []
}