{
  "userSays": [
    {
      "id": "8835df14-05e8-44b2-9fd4-98cf499201af",
      "data": [
        {
          "text": "Phone"
        }
      ],
      "isTemplate": false,
      "count": 0
    },
    {
      "id": "ac2043d0-2b9c-451e-9662-6418b9fa7318",
      "data": [
        {
          "text": "Telephone number"
        }
      ],
      "isTemplate": false,
      "count": 0
    },
    {
      "id": "9f30b658-559b-4cc6-a8eb-32bbc41a358c",
      "data": [
        {
          "text": "Phone number"
        }
      ],
      "isTemplate": false,
      "count": 0
    }
  ],
  "id": "793a7be0-37a7-4be1-a040-31e2c969ee00",
  "name": "contactPhone",
  "auto": true,
  "contexts": [],
  "responses": [
    {
      "resetContexts": false,
      "affectedContexts": [],
      "parameters": [],
      "messages": [
        {
          "type": 0,
          "speech": "Event contact phone number is +372 58401398"
        }
      ]
    }
  ],
  "priority": 500000,
  "webhookUsed": false,
  "webhookForSlotFilling": false,
  "fallbackIntent": false,
  "events": []
}