{
  "userSays": [
    {
      "id": "42e9546f-b578-4456-8f86-321812baf720",
      "data": [
        {
          "text": "event room"
        }
      ],
      "isTemplate": false,
      "count": 0
    },
    {
      "id": "4cf456d0-97ad-489b-8aa8-de07a29af268",
      "data": [
        {
          "text": "In what room is the event?"
        }
      ],
      "isTemplate": false,
      "count": 0
    },
    {
      "id": "a32a2ef5-7a0f-4c75-9246-ca298580f5f9",
      "data": [
        {
          "text": "What is the event room?"
        }
      ],
      "isTemplate": false,
      "count": 0
    },
    {
      "id": "6efdb3c2-44d5-4f43-862f-ff77faef2217",
      "data": [
        {
          "text": "Where is the event room?"
        }
      ],
      "isTemplate": false,
      "count": 0
    }
  ],
  "id": "1675386c-e268-4937-aa63-7cd05428d602",
  "name": "eventRoom",
  "auto": true,
  "contexts": [],
  "responses": [
    {
      "resetContexts": false,
      "affectedContexts": [],
      "parameters": [],
      "messages": [
        {
          "type": 0,
          "speech": "Topconf Tallinn will be at the Sokos Hotel Viru in Tallinn. For finding exact rooms please ask for schedule."
        }
      ]
    }
  ],
  "priority": 500000,
  "webhookUsed": false,
  "webhookForSlotFilling": false,
  "fallbackIntent": false,
  "events": []
}