{
  "id": "cd442559-54e3-4fc9-a26d-408a5c801ad0",
  "name": "queryType",
  "isOverridable": true,
  "entries": [
    {
      "value": "name",
      "synonyms": [
        "name"
      ]
    },
    {
      "value": "location",
      "synonyms": [
        "location"
      ]
    },
    {
      "value": "time",
      "synonyms": [
        "time"
      ]
    },
    {
      "value": "full",
      "synonyms": [
        "everything",
        "all",
        "full info"
      ]
    }
  ],
  "isEnum": false,
  "automatedExpansion": false
}